dut.vcd
$comment Generated by Amaranth $end
$date 2023-11-07 00:01:08.934842 $end
$timescale 1 ps $end
$scope module bench $end
$scope module top $end
$var wire 32 ! a2 $end
$var wire 32 " a2p $end
$var wire 32 # a4 $end
$var wire 32 $ a4p $end
$var wire 32 % a5 $end
$var wire 32 & a5p $end
$var wire 32 ' a6 $end
$var wire 32 ( a6p $end
$var wire 32 ) a8 $end
$var wire 32 * a8p $end
$var wire 32 + o $end
$var wire 32 , o8 $end
$scope module adder1 $end
$var wire 32 ! a2 $end
$var wire 32 - o1 $end
$var wire 32 . a1 $end
$upscope $end
$scope module adder2 $end
$var wire 32 # a4 $end
$var wire 32 / o2 $end
$var wire 32 0 a3 $end
$upscope $end
$scope module adder3 $end
$var wire 32 % a5 $end
$var wire 32 ' a6 $end
$var wire 32 1 o3 $end
$upscope $end
$scope module adder4 $end
$var wire 32 ) a8 $end
$var wire 32 2 o4 $end
$var wire 32 3 a7 $end
$upscope $end
$scope module adder5 $end
$var wire 32 - o1 $end
$var wire 32 / o2 $end
$var wire 32 4 o5 $end
$upscope $end
$scope module adder6 $end
$var wire 32 1 o3 $end
$var wire 32 2 o4 $end
$var wire 32 5 o6 $end
$upscope $end
$scope module adder7 $end
$var wire 32 4 o5 $end
$var wire 32 5 o6 $end
$var wire 32 6 o7 $end
$upscope $end
$scope module adder8 $end
$var wire 32 , o8 $end
$var wire 32 6 o7 $end
$var wire 32 7 a9 $end
$upscope $end
$upscope $end
$upscope $end
$enddefinitions $end
#0
$dumpvars
b0 !
b0 "
b0 #
b0 $
b0 %
b0 &
b0 '
b0 (
b0 )
b0 *
b10001001001010 +
b100010010010101011 ,
b100010011001010 -
b100010011001011 .
b1000001010011000 /
b1000001010011000 0
b0 1
b1111000111001010 2
b1111000111001010 3
b1100011101100010 4
b1111000111001010 5
b11011100100101100 6
b110101101111111 7
$end
#1000
b111010000011 0
b1100101111011 +
b1110010000001001 2
b11111010010001 4
b1110010000001001 3
b1110010000001001 5
b10010001010011010 6
b11001011110111010 ,
b111010100100000 7
b111010000011 /
b11000000001110 -
b11000000001110 .
#2000
b111110101001 0
b1110111110100 +
b1100001100101101 2
b100001111111111 4
b1100001100101101 3
b1100001100101101 5
b10000011100101100 6
b11101111101001011 ,
b1101100000011111 7
b111110101001 /
b11010001010110 -
b11010001010111 .
#3000
b1110000000110010 0
b10010100001001 +
b111011000110100 2
b1110111100010000 4
b111011000110100 3
b111011000110100 5
b10110010101000100 6
b100101000010010101 ,
b1110101101010001 7
b1110000000110010 /
b111011011110 -
b111011011110 .
#4000
b1101010100010101 0
b10011111110111 +
b11110111100101 2
b10110100101110011 4
b11110111100101 3
b11110111100101 5
b11010011101011000 6
b100111111101110110 ,
b1101100000011110 7
b1101010100010101 /
b1001010001011110 -
b1001010001011110 .
#5000
b1001000101111101 0
b10101101111000 +
b1111010111100000 2
b1111001010101111 4
b1111010111100000 3
b1111010111100000 5
b11110100010001111 6
b101011011110001101 ,
b1100111011111110 7
b1001000101111101 /
b110000100110010 -
b110000100110011 .
#6000
b1011101111110111 0
b10100100001011 +
b11011101000010 2
b11001000000010111 4
b11011101000010 3
b11011101000010 5
b11100011101011001 6
b101001000010110001 ,
b1100100101011000 7
b1011101111110111 /
b1101010000100000 -
b1101010000100000 .
#7000
b111100100100 0
b1111011001010 +
b1100100110000101 2
b1100110011011000 4
b1100100110000101 3
b1100100110000101 5
b11001011001011101 6
b11110110010101110 ,
b101011001010001 7
b111100100100 /
b1011110110110100 -
b1011110110110101 .
#8000
b110011000100111 0
b10000110010001 +
b1011010011100000 2
b1101101001010111 4
b1011010011100000 3
b1011010011100000 5
b11000111100110111 6
b100001100100010101 ,
b1000100111011110 7
b110011000100111 /
b111010000110000 -
b111010000110001 .
#9000
b100001000101100 0
b1101000011011 +
b1111011001010010 2
b100010100011000 4
b1111011001010010 3
b1111011001010010 5
b10011101101101010 6
b11010000110111011 ,
b110011001010001 7
b100001000101100 /
b1011101100 -
b1011101100 .
#10000
b1011011010101101 0
b10010000100011 +
b1010100110001010 2
b11000101001010101 4
b1010100110001010 3
b1010100110001010 5
b100011001111011111 6
b100100001000110001 ,
b111001010010 7
b1011011010101101 /
b1101001110101000 -
b1101001110101001 .
#11000
b101110010001111 0
b111111101011 +
b10010000010010 2
b1101001000011101 4
b10010000010010 3
b10010000010010 5
b1111011000101111 6
b1111111010111010 ,
b100010001011 7
b101110010001111 /
b111010110001110 -
b111010110001110 .
#12000
b1000111111111001 0
b10011010110000 +
b101111010000101 2
b10111011111100111 4
b101111010000101 3
b101111010000101 5
b11101011001101100 6
b100110101100001100 ,
b1001010010100000 7
b1000111111111001 /
b1110011111101110 -
b1110011111101111 .
#13000
b101000110111010 0
b1101100001111 +
b1001011011000111 2
b111010101010000 4
b1001011011000111 3
b1001011011000111 5
b10000110000010111 6
b11011000011110100 ,
b1010010011011101 7
b101000110111010 /
b10001110010110 -
b10001110010111 .
#14000
b11101001110111 0
b10010010001011 +
b1010111111001010 2
b10011100010101011 4
b1010111111001010 3
b1010111111001010 5
b11110100001110101 6
b100100100010111011 ,
b110000001000110 7
b11101001110111 /
b1111111000110100 -
b1111111000110100 .
#15000
b1000000111000101 0
b10010001001110 +
b111001101100100 2
b10000011000010011 4
b111001101100100 3
b111001101100100 5
b10111100101110111 6
b100100010011100011 ,
b1100101101101100 7
b1000000111000101 /
b1000010001001110 -
b1000010001001111 .
#16000
b101001000001001 0
b1100100111001 +
b1110011011010101 2
b1001110100000101 4
b1110011011010101 3
b1110011011010101 5
b11000001111011010 6
b11001001110010001 ,
b111110110111 7
b101001000001001 /
b100101011111100 -
b100101011111101 .
#17000
b1101101001000011 0
b10101011011110 +
b110110010011100 2
b11010010001110011 4
b110110010011100 3
b110110010011100 5
b100001000100001111 6
b101010110111101101 ,
b1001110011011110 7
b1101101001000011 /
b1100101000110000 -
b1100101000110000 .
#18000
b1001111011100111 0
b1010010001010 +
b1000000100110101 2
b1100001100011101 4
b1000000100110101 3
b1000000100110101 5
b10100010001010010 6
b10100100010101001 ,
b10001010111 7
b1001111011100111 /
b10010000110110 -
b10010000110110 .
#19000
b1110101111110100 0
b1100110001010 +
b110011010011011 2
b1111111101011100 4
b110011010011011 3
b110011010011011 5
b10110010111110111 6
b11001100010101010 ,
b11001010110011 7
b1110101111110100 /
b1001101101000 -
b1001101101001 .
#20000
b110001101100011 0
b1011011010001 +
b1001011110010110 2
b1100110010111011 4
b1001011110010110 3
b1001011110010110 5
b10110010001010001 6
b10110110100011111 ,
b100011001110 7
b110001101100011 /
b110100101011000 -
b110100101011001 .
#21000
b1001000000001101 0
b10100011000000 +
b1010011111001101 2
b10011011010011111 4
b1010011111001101 3
b1010011111001101 5
b11101111001101100 6
b101000110000001001 ,
b1010110110011101 7
b1001000000001101 /
b1010011010010010 -
b1010011010010011 .
#22000
b1000100001110111 0
b10011111011011 +
b1111100000010000 2
b10110010000111011 4
b1111100000010000 3
b1111100000010000 5
b100101110001001011 6
b100111110110111100 ,
b10000101110001 7
b1000100001110111 /
b1101101111000100 -
b1101101111000101 .
#23000
b100010000011010 0
b1011001001011 +
b1000100100111000 2
b101100011001000 4
b1000100100111000 3
b1000100100111000 5
b1110001000000000 6
b10110010010110101 ,
b1000001010110101 7
b100010000011010 /
b1010010101110 -
b1010010101111 .
#24000
b1010111000111001 0
b10100110100101 +
b1111101001000011 2
b10110101010110001 4
b1111101001000011 3
b1111101001000011 5
b100110010011110100 6
b101001101001010111 ,
b11010101100011 7
b1010111000111001 /
b1011110001111000 -
b1011110001111000 .
#25000
b1101000000101101 0
b1111011110001 +
b100000000000010 2
b10111010001100011 4
b100000000000010 3
b100000000000010 5
b11011010001100101 6
b11110111100011101 ,
b11101010111000 7
b1101000000101101 /
b1010010000110110 -
b1010010000110110 .
#26000
b111001010001010 0
b10101101011100 +
b1001011101010010 2
b10011010000011000 4
b1001011101010010 3
b1001011101010010 5
b11100101101101010 6
b101011010111001010 ,
b1110101001100000 7
b111001010001010 /
b1100000110001110 -
b1100000110001110 .
#27000
b1011101101100 0
b1000011110011 +
b10111011110001 2
b1010010101010110 4
b10111011110001 3
b10111011110001 5
b1101010001000111 6
b10000111100110101 ,
b11101011101110 7
b1011101101100 /
b1000110111101010 -
b1000110111101010 .
#28000
b111101010110001 0
b1111100011010 +
b1110011011011101 2
b1000111100101101 4
b1110011011011101 3
b1110011011011101 5
b10111011000001010 6
b11111000110100101 ,
b111101110011011 7
b111101010110001 /
b1010001111100 -
b1010001111101 .
#29000
b1101111011000101 0
b10010101111010 +
b1111010000111010 2
b10011000000100101 4
b1111010000111010 3
b1111010000111010 5
b100010010001011111 6
b100101011110100011 ,
b11001101000100 7
b1101111011000101 /
b101000101100000 -
b101000101100001 .
#30000
b1010001001001 0
b1111010101110 +
b1010001111110111 2
b111111010010101 4
b1010001111110111 3
b1010001111110111 5
b10010001010001100 6
b11110101011100000 ,
b1100100001010100 7
b1010001001001 /
b110101001001100 -
b110101001001100 .
#31000
b10000000111100 0
b1011001111101 +
b11100100000100 2
b1100000010100010 4
b11100100000100 3
b11100100000100 5
b1111100110100110 6
b10110011111010011 ,
b110111000101101 7
b10000000111100 /
b1010000001100110 -
b1010000001100110 .
#32000
b1000010010100110 0
b10100100110100 +
b110010111111111 2
b10111010010111100 4
b110010111111111 3
b110010111111111 5
b11101101010111011 6
b101001001101001001 ,
b1011100010001110 7
b1000010010100110 /
b1111000000010110 -
b1111000000010110 .
#33000
b10110111000111 0
b1011010001111 +
b111010001110001 2
b101011101101111 4
b111010001110001 3
b111010001110001 5
b1100101111100000 6
b10110100011110010 ,
b1001110100010010 7
b10110111000111 /
b10100110101000 -
b10100110101001 .
#34000
b101111110100101 0
b1010011101111 +
b1010101100101101 2
b111010010101001 4
b1010101100101101 3
b1010101100101101 5
b10001111111010110 6
b10100111011110110 ,
b10111100100000 7
b101111110100101 /
b1010100000100 -
b1010100000100 .
#35000
b101001101110 0
b1001101111010 +
b1000100100111111 2
b1000011111101010 4
b1000100100111111 3
b1000100100111111 5
b10001000100101001 6
b10011011110100000 ,
b10011001110111 7
b101001101110 /
b111110101111100 -
b111110101111101 .
#36000
b1001010011100110 0
b1100101101101 +
b100111011110000 2
b1001111111101000 4
b100111011110000 3
b100111011110000 5
b1110111011011000 6
b11001011011010011 ,
b1010011111111011 7
b1001010011100110 /
b101100000010 -
b101100000011 .
#37000
b101101111110000 0
b1101101100010 +
b1001110001111010 2
b1000001101101010 4
b1001110001111010 3
b1001110001111010 5
b10001111111100100 6
b11011011000101000 ,
b1001011001000100 7
b101101111110000 /
b10011101111010 -
b10011101111010 .
#38000
b100100010001010 0
b1110000011110 +
b101101100110111 2
b1000100100110100 4
b101101100110111 3
b101101100110111 5
b1110010001101011 6
b11100000111101101 ,
b1101110110000010 7
b100100010001010 /
b100000010101010 -
b100000010101010 .
#39000
b111111010011101 0
b10100011001010 +
b1101110000111111 2
b1100111101110011 4
b1101110000111111 3
b1101110000111111 5
b11010101110110010 6
b101000110010101010 ,
b1110000011111000 7
b111111010011101 /
b101000011010110 -
b101000011010111 .
#40000
b1100101010011010 0
b11100000001100 +
b1111100010111000 2
b11011001010110010 4
b1111100010111000 3
b1111100010111000 5
b101010101101101010 6
b111000000011000001 ,
b1101010101010111 7
b1100101010011010 /
b1110100000011000 -
b1110100000011000 .
#41000
b1011010110111011 0
b10000011111011 +
b1000010010101010 2
b1011111101101001 4
b1000010010101010 3
b1000010010101010 5
b10100010000010011 6
b100000111110111111 ,
b1100101110101100 7
b1011010110111011 /
b100110101110 -
b100110101110 .
#42000
b10110110110001 0
b10001101100110 +
b101101011101011 2
b1111101100001011 4
b101101011101011 3
b101101011101011 5
b10101010111110110 6
b100011011001100001 ,
b1110000001101011 7
b10110110110001 /
b1100110101011010 -
b1100110101011010 .
#43000
b1010000000111111 0
b10011100111100 +
b1101001100010001 2
b10001001111010001 4
b1101001100010001 3
b1101001100010001 5
b11110011011100010 6
b100111001111001100 ,
b1000110011101010 7
b1010000000111111 /
b111001110010010 -
b111001110010010 .
#44000
b10010010100010 0
b1110011100000 +
b1001111110100100 2
b1001010100000000 4
b1001111110100100 3
b1001111110100100 5
b10011010010100100 6
b11100111000000100 ,
b1001100101100000 7
b10010010100010 /
b111000001011110 -
b111000001011110 .
#45000
b1110110111110111 0
b10100001101100 +
b101101001000000 2
b11010110000111011 4
b101101001000000 3
b101101001000000 5
b100000011001111011 6
b101000011011001001 ,
b1000000001001110 7
b1110110111110111 /
b1011111001000100 -
b1011111001000100 .
#46000
b1101010110001 0
b1110011101001 +
b1100010010011000 2
b1111010100101111 4
b1100010010011000 3
b1100010010011000 5
b11011100111000111 6
b11100111010011110 ,
b1010011010111 7
b1101010110001 /
b1101101001111110 -
b1101101001111111 .
#47000
b11001110111100 0
b1000001110110 +
b10100111111100 2
b110001000000100 4
b10100111111100 3
b10100111111100 5
b1000110000000000 6
b10000011101100011 ,
b111101101100011 7
b11001110111100 /
b10111001001000 -
b10111001001001 .
#48000
b1100101101100011 0
b10001111000110 +
b100000010101110 2
b11000111100100101 4
b100000010101110 3
b100000010101110 5
b11100111111010011 6
b100011110001100000 ,
b110110010001101 7
b1100101101100011 /
b1100001111000010 -
b1100001111000011 .
#49000
b1101000100000010 0
b1100011110010 +
b111111100010110 2
b10000111000001000 4
b111111100010110 3
b111111100010110 5
b11000110100011110 6
b11000111100101011 ,
b1000001101 7
b1101000100000010 /
b11110100000110 -
b11110100000110 .
#50000
b101011000101 0
b1011001111000 +
b110100111001000 2
b110101111110111 4
b110100111001000 3
b110100111001000 5
b1101010110111111 6
b10110011110001101 ,
b1001000111001110 7
b101011000101 /
b110000100110010 -
b110000100110010 .
#51000
b1000101111100100 0
b10001010010010 +
b101011000000001 2
b1101011111100000 4
b101011000000001 3
b101011000000001 5
b10010110111100001 6
b100010100100101100 ,
b1111101101001011 7
b1000101111100100 /
b100101111111100 -
b100101111111100 .
#52000
b110101011111010 0
b1101101011100 +
b11011101011110 2
b10100000111111110 4
b11011101011110 3
b11011101011110 5
b10111100101011100 6
b11011010111001111 ,
b11110001110011 7
b110101011111010 /
b1101011100000100 -
b1101011100000101 .
#53000
b100010111101111 0
b1110100100100 +
b1101111111010100 2
b100110010110011 4
b1101111111010100 3
b1101111111010100 5
b10010110010000111 6
b11101001001000001 ,
b1010010110111010 7
b100010111101111 /
b11011000100 -
b11011000100 .
#54000
b1110001001110111 0
b10101010110111 +
b1100110001111110 2
b1110001011100101 4
b1100110001111110 3
b1100110001111110 5
b11010111101100011 6
b101010101101110001 ,
b1111110000001110 7
b1110001001110111 /
b1101110 -
b1101110 .
#55000
b1100001111001000 0
b10001101001110 +
b110010111010011 2
b1111110110101110 4
b110010111010011 3
b110010111010011 5
b10110001110000001 6
b100011010011100100 ,
b1101000101100011 7
b1100001111001000 /
b11100111100110 -
b11100111100111 .
#56000
b1110011000010110 0
b11000110010010 +
b1100011101000000 2
b11000001001101010 4
b1100011101000000 3
b1100011101000000 5
b100100100110101010 6
b110001100100100111 ,
b1100111101111101 7
b1110011000010110 /
b1001110001010100 -
b1001110001010101 .
#57000
b1111110001000011 0
b11010001000001 +
b1101000001100010 2
b11010100001001011 4
b1101000001100010 3
b1101000001100010 5
b100111100010101101 6
b110100010000011010 ,
b1100101101101101 7
b1111110001000011 /
b1010110000001000 -
b1010110000001001 .
#58000
b10010110010110 0
b1110100000101 +
b1101001010000000 2
b1010111111110100 4
b1101001010000000 3
b1101001010000000 5
b11000001001110100 6
b11101000001010000 ,
b100110111011100 7
b10010110010110 /
b1000101001011110 -
b1000101001011111 .
#59000
b1111100000010110 0
b11010001111011 +
b1000101010101000 2
b11110010010101010 4
b1000101010101000 3
b1000101010101000 5
b100110111101010010 6
b110100011110110000 ,
b1101100001011110 7
b1111100000010110 /
b1110110010010100 -
b1110110010010100 .
#60000
b10001001001101 0
b1011001101000 +
b101001011000000 2
b100011000000011 4
b101001011000000 3
b101001011000000 5
b1001100011000011 6
b10110011010001011 ,
b1100110111001000 7
b10001001001101 /
b10001110110110 -
b10001110110110 .
#61000
b110101011110011 0
b1101010000100 +
b1000100111000011 2
b1111100000100111 4
b1000100111000011 3
b1000100111000011 5
b11000000111101010 6
b11010100001000001 ,
b10011001010111 7
b110101011110011 /
b1000110100110100 -
b1000110100110101 .
#62000
b1100101110111 0
b10010101010010 +
b1011011000110010 2
b1101010111111011 4
b1011011000110010 3
b1011011000110010 5
b11000110000101101 6
b100101010100101010 ,
b1100100011111101 7
b1100101110111 /
b1011110010000100 -
b1011110010000101 .
#63000
b1111011110011101 0
b10010110000110 +
b1000010001111101 2
b11100010001000011 4
b1000010001111101 3
b1000010001111101 5
b100100100011000000 6
b100101100001100010 ,
b111110100010 7
b1111011110011101 /
b1100110010100110 -
b1100110010100111 .
#64000
b1101110100010000 0
b10101100110110 +
b10010100100011 2
b11010101100110000 4
b10010100100011 3
b10010100100011 5
b11101000001010011 6
b101011001101101111 ,
b1110001100011100 7
b1101110100010000 /
b1100111000100000 -
b1100111000100001 .
#65000
b1110101100110101 0
b10101101110100 +
b1110000110100000 2
b10011011100010011 4
b1110000110100000 3
b1110000110100000 5
b100001100010110011 6
b101011011101001100 ,
b1001111010011001 7
b1110101100110101 /
b100101111011110 -
b100101111011110 .
#66000
b11101101001110 0
b10000010100011 +
b11011001111000 2
b10000100001111100 4
b11011001111000 3
b11011001111000 5
b10011111011110100 6
b100000101000111000 ,
b1100101101000100 7
b11101101001110 /
b1100110100101110 -
b1100110100101111 .
#67000
b11001100101111 0
b111101010110 +
b101111101011 2
b1101011110111001 4
b101111101011 3
b101111101011 5
b1110001110100100 6
b1111010101101001 ,
b1000111000101 7
b11001100101111 /
b1010010010001010 -
b1010010010001010 .
#68000
b1010111101010100 0
b10101010011110 +
b11000011000010 2
b11010110001111100 4
b11000011000010 3
b11000011000010 5
b11101110100111110 6
b101010100111100100 ,
b1100110010100110 7
b1010111101010100 /
b1111110100101000 -
b1111110100101001 .
#69000
b1110011001001110 0
b10110000110011 +
b111100010110010 2
b10101110110110110 4
b111100010110010 3
b111100010110010 5
b11101011001101000 6
b101100001100111110 ,
b1110110011010110 7
b1110011001001110 /
b111011101101000 -
b111011101101000 .
#70000
b1110011101000100 0
b10000011111110 +
b11100011001101 2
b11010111010111100 4
b11100011001101 3
b11100011001101 5
b11110011110001001 6
b100000111111101000 ,
b10100001011111 7
b1110011101000100 /
b1100011101111000 -
b1100011101111000 .
#71000
b1010101101 0
b1011110100010 +
b1001001100001101 2
b1101001010101 4
b1001001100001101 3
b1001001100001101 5
b1010110101100010 6
b10111101000100101 ,
b1100110011000011 7
b1010101101 /
b1011110101000 -
b1011110101001 .
#72000
b111110011000 0
b1000000001110 +
b1110100111110 2
b110000110001100 4
b1110100111110 3
b1110100111110 5
b111111011001010 6
b10000000011101100 ,
b1000001000100010 7
b111110011000 /
b101000111110100 -
b101000111110100 .
#73000
b1110110011111111 0
b1011001001001 +
b1111100100111 2
b10010111110001011 4
b1111100100111 3
b1111100100111 5
b10100111010110010 6
b10110010010011101 ,
b1010111101011 7
b1110110011111111 /
b100001010001100 -
b100001010001100 .
#74000
b1101110101110001 0
b10111110000101 +
b1111111111010011 2
b10110100110000101 4
b1111111111010011 3
b1111111111010011 5
b100110100101011000 6
b101111100001010100 ,
b1000111011111100 7
b1101110101110001 /
b1000110000010100 -
b1000110000010100 .
#75000
b1100011110000111 0
b1110001010001 +
b111110001110110 2
b10010100111001011 4
b111110001110110 3
b111110001110110 5
b11010011001000001 6
b11100010100010001 ,
b1111011010000 7
b1100011110000111 /
b110001001000100 -
b110001001000100 .
#76000
b1101101101100000 0
b1101111110001 +
b110011000010011 2
b10011010100011100 4
b110011000010011 3
b110011000010011 5
b11001101100101111 6
b11011111100010001 ,
b10001111100010 7
b1101101101100000 /
b101100110111100 -
b101100110111101 .
#77000
b1000000011001111 0
b10000000101100 +
b1111000001111 2
b10000100110001111 4
b1111000001111 3
b1111000001111 5
b10010011110011110 6
b100000001011001110 ,
b1101101100110000 7
b1000000011001111 /
b1000100011000000 -
b1000100011000000 .
#78000
b10111010110100 0
b1001001101001 +
b1010000000011000 2
b100010110110000 4
b1010000000011000 3
b1010000000011000 5
b1110010111001000 6
b10010011010011101 ,
b100000011010101 7
b10111010110100 /
b1011011111100 -
b1011011111101 .
#79000
b100000110100011 0
b1010111001101 +
b1000101000111100 2
b101001010011111 4
b1000101000111100 3
b1000101000111100 5
b1101110011011011 6
b10101110011011100 ,
b1000000000000001 7
b100000110100011 /
b1000011111100 -
b1000011111101 .
#80000
b1001101010001010 0
b10000010010101 +
b1000010110100010 2
b10100000100100110 4
b1000010110100010 3
b1000010110100010 5
b11100011011001000 6
b100000100101011000 ,
b100001010010000 7
b1001101010001010 /
b1010011010011100 -
b1010011010011100 .
#81000
b11101111111001 0
b1111001111110 +
b111110110100011 2
b1100000100111111 4
b111110110100011 3
b111110110100011 5
b10011111011100010 6
b11110011111100101 ,
b1010100100000011 7
b11101111111001 /
b1000010101000110 -
b1000010101000110 .
#82000
b1111011001011001 0
b10000000111010 +
b111101111111 2
b11010001110111101 4
b111101111111 3
b111101111111 5
b11011001100111100 6
b100000001110100010 ,
b101000001100110 7
b1111011001011001 /
b1010110101100100 -
b1010110101100101 .
#83000
b1100011101001010 0
b1111111111011 +
b1011000011010101 2
b10010110110101100 4
b1011000011010101 3
b1011000011010101 5
b11101111010000001 6
b11111111110110110 ,
b10000100110101 7
b1100011101001010 /
b110011001100010 -
b110011001100011 .
#84000
b1010000010010110 0
b10000100011111 +
b1011010010001010 2
b1011011011100100 4
b1011010010001010 3
b1011010010001010 5
b10110101101101110 6
b100001000111111010 ,
b1010011010001100 7
b1010000010010110 /
b1011001001110 -
b1011001001111 .
#85000
b100110000101001 0
b1000000101111 +
b10001100111111 2
b101000010010001 4
b10001100111111 3
b10001100111111 5
b111001111010000 6
b10000001011111001 ,
b1000111100101001 7
b100110000101001 /
b10001101000 -
b10001101000 .
#86000
b1011101001110011 0
b10111100001111 +
b100010011100111 2
b11011000000001101 4
b100010011100111 3
b100010011100111 5
b11111010011110100 6
b101111000011110010 ,
b1111101111111110 7
b1011101001110011 /
b1111010110011010 -
b1111010110011010 .
#87000
b1010110101100011 0
b10011110100000 +
b1001110101100001 2
b10010111001011101 4
b1001110101100001 3
b1001110101100001 5
b11100101110111110 6
b100111101000001101 ,
b1010111001001111 7
b1010110101100011 /
b1000000011111010 -
b1000000011111011 .
#88000
b100101111110101 0
b1101011100001 +
b11100110111011 2
b1010000111011101 4
b11100110111011 3
b11100110111011 5
b1101101110011000 6
b11010111000010100 ,
b1101001001111100 7
b100101111110101 /
b101010111101000 -
b101010111101001 .
#89000
b1000100000001101 0
b111010010010 +
b10001000110000 2
b1010000110110011 4
b10001000110000 3
b10001000110000 5
b1100001111100011 6
b1110100100101010 ,
b10010101000111 7
b1000100000001101 /
b1100110100110 -
b1100110100111 .
#90000
b1101110100111010 0
b10010001000110 +
b1001000101000111 2
b10100110010000110 4
b1001000101000111 3
b1001000101000111 5
b11101110111001101 6
b100100010001100101 ,
b110011010011000 7
b1101110100111010 /
b110111101001100 -
b110111101001100 .
#91000
b1101100111010011 0
b11010100001100 +
b1111011011011101 2
b11101011010001101 4
b1111011011011101 3
b1111011011011101 5
b101100110101101010 6
b110101000011000101 ,
b1000001101011011 7
b1101100111010011 /
b1111110010111010 -
b1111110010111011 .
#92000
b10000111101 0
b1101110000000 +
b1100111010110111 2
b1101010011000111 4
b1100111010110111 3
b1100111010110111 5
b11010001101111110 6
b11011100000001000 ,
b1010010001010 7
b10000111101 /
b1101000010001010 -
b1101000010001010 .
#93000
b1101000111 0
b1100101100110 +
b11110101110110 2
b1011011101101001 4
b11110101110110 3
b11110101110110 5
b1111010011011111 6
b11001011001101111 ,
b1010000110010000 7
b1101000111 /
b1011010000100010 -
b1011010000100010 .
#94000
b1101000100001100 0
b1111011001001 +
b100001100001011 2
b10110000110110000 4
b100001100001011 3
b100001100001011 5
b11010010010111011 6
b11110110010010011 ,
b100011111011000 7
b1101000100001100 /
b1001000010100100 -
b1001000010100100 .
#95000
b10011101011 0
b1101111111111 +
b1101011101111100 2
b101100001011011 4
b1101011101111100 3
b1101011101111100 5
b10010111111010111 6
b11011111111111110 ,
b1001000000100111 7
b10011101011 /
b101001101110000 -
b101001101110000 .
#96000
b10111000011000 0
b1111001000000 +
b1110110111000001 2
b11011101111010 4
b1110110111000001 3
b1110110111000001 5
b10010010100111011 6
b11110010000000100 ,
b1011111011001001 7
b10111000011000 /
b100101100010 -
b100101100010 .
#97000
b1100011011100100 0
b11010001110111 +
b1011010110000000 2
b11011110101100000 4
b1011010110000000 3
b1011010110000000 5
b100111001011100000 6
b110100011101110100 ,
b1101010010010100 7
b1100011011100100 /
b1111011001111100 -
b1111011001111100 .
#98000
b101100000011010 0
b1101110110001 +
b1001001100000100 2
b1010010000000010 4
b1001001100000100 3
b1001001100000100 5
b10011011100000110 6
b11011101100010100 ,
b1000010000001110 7
b101100000011010 /
b100101111101000 -
b100101111101000 .
#99000
b1000110000011111 0
b10010110110100 +
b110111001010001 2
b10001111100110011 4
b110111001010001 3
b110111001010001 5
b11000110110000100 6
b100101101101001010 ,
b1100110111000110 7
b1000110000011111 /
b1001001100010100 -
b1001001100010101 .
#100000
b10000011111110 0
b1101001001110 +
b111010101011101 2
b1111101010100110 4
b111010101011101 3
b111010101011101 5
b10111000000000011 6
b11010010011100010 ,
b11010011011111 7
b10000011111110 /
b1101100110101000 -
b1101100110101001 .
#101000
b1111010110100110 0
b10010100111100 +
b110001000 2
b10111011101001100 4
b110001000 3
b110001000 5
b10111100011010100 6
b100101001111001101 ,
b1101101011111001 7
b1111010110100110 /
b1000000110100110 -
b1000000110100110 .
#102000
b1101100000000000 0
b10010100001011 +
b1101011011011001 2
b1111001000001010 4
b1101011011011001 3
b1101011011011001 5
b11100100011100011 6
b100101000010111100 ,
b1000011111011001 7
b1101100000000000 /
b1101000001010 -
b1101000001011 .
#103000
b1111010110011100 0
b11001100001101 +
b1100011110001000 2
b11000010001010100 4
b1100011110001000 3
b1100011110001000 5
b100100101111011100 6
b110011000011011111 ,
b1110010100000011 7
b1111010110011100 /
b1000111010111000 -
b1000111010111000 .
#104000
b1100100101000010 0
b10000100110100 +
b100110001011011 2
b10101111111101000 4
b100110001011011 3
b100110001011011 5
b11010110001000011 6
b100001001101000110 ,
b110011100000011 7
b1100100101000010 /
b1001011010100110 -
b1001011010100111 .
#105000
b1101010101001101 0
b10000011000001 +
b1010110010010110 2
b10010101011011101 4
b1010110010010110 3
b1010110010010110 5
b11101011101110011 6
b100000110000011100 ,
b11010010101001 7
b1101010101001101 /
b101010110010000 -
b101010110010001 .
#106000
b1000100011111010 0
b1010011011000 +
b11001110010110 2
b1000110101011100 4
b11001110010110 3
b11001110010110 5
b1100000011110010 6
b10100110110000101 ,
b1000110010010011 7
b1000100011111010 /
b10001100010 -
b10001100010 .
#107000
b1101001011000010 0
b1110111110001 +
b110001111111111 2
b10101110100101010 4
b110001111111111 3
b110001111111111 5
b11100000100101001 6
b11101111100010011 ,
b1110111101010 7
b1101001011000010 /
b1000101001101000 -
b1000101001101001 .
#108000
b1000101001010010 0
b1110011010000 +
b1000100010111011 2
b1101011010001000 4
b1000100010111011 3
b1000100010111011 5
b10101111101000011 6
b11100110100001000 ,
b110110111000101 7
b1000101001010010 /
b100110000110110 -
b100110000110110 .
#109000
b1111000011101011 0
b10100110011000 +
b101110011000110 2
b11111000001000111 4
b101110011000110 3
b101110011000110 5
b100100110100001101 6
b101001100110001111 ,
b100110010000010 7
b1111000011101011 /
b1111111101011100 -
b1111111101011101 .
#110000
b100010100100111 0
b1100101011000 +
b1111010111110111 2
b110001011101101 4
b1111010111110111 3
b1111010111110111 5
b10101100011100100 6
b11001010110000011 ,
b11110010011111 7
b100010100100111 /
b1110111000110 -
b1110111000111 .
#111000
b1000001101001111 0
b1100100001011 +
b101100000011011 2
b1100010011001101 4
b101100000011011 3
b101100000011011 5
b10001110011101000 6
b11001000010111110 ,
b111001111010110 7
b1000001101001111 /
b100000101111110 -
b100000101111111 .
#112000
b1101100000110011 0
b10000001011110 +
b1001110001010000 2
b10011111001001011 4
b1001110001010000 3
b1001110001010000 5
b11101101010011011 6
b100000010111100111 ,
b10101101001100 7
b1101100000110011 /
b110011000011000 -
b110011000011000 .
#113000
b1010111010100001 0
b10000100011000 +
b11111001001001 2
b10010000110010011 4
b11111001001001 3
b11111001001001 5
b10101111111011100 6
b100001000110001001 ,
b1011000110101101 7
b1010111010100001 /
b111001011110010 -
b111001011110011 .
#114000
b1000000001101011 0
b1001001000100 +
b10011110011101 2
b1100011111001111 4
b10011110011101 3
b10011110011101 5
b1110111101101100 6
b10010010001000011 ,
b11010011010111 7
b1000000001101011 /
b100011101100100 -
b100011101100100 .
#115000
b111111101110110 0
b1011100000011 +
b111111110101 2
b10001100100001100 4
b111111110101 3
b111111110101 5
b10010100100000001 6
b10111000000110000 ,
b100011100101111 7
b111111101110110 /
b1001100110010110 -
b1001100110010111 .
#116000
b111101111101111 0
b1100001011110 +
b10000010011 2
b10100100001100011 4
b10000010011 3
b10000010011 5
b10100110001110110 6
b11000010111101001 ,
b11100101110011 7
b111101111101111 /
b1100110001110100 -
b1100110001110100 .
#117000
b1000101011001010 0
b10101011111011 +
b1101011001100010 2
b10011111100110010 4
b1101011001100010 3
b1101011001100010 5
b100001010110010100 6
b101010111110111101 ,
b1001101000101001 7
b1000101011001010 /
b1011010001101000 -
b1011010001101000 .
